{
  "PlayfieldImage": "IndyPlayfield.jpg",
  "PlayfieldToLedsScale": 0.25,
  "Leds": [
    {
      "Id": 1,
      "HardwareAddress": "PLB-101",
      "Name": "Eternal Life",
      "IsSingleColor": true,
      "SingleColor": "#FFFF0000",
      "LocationX": 45.805687203791464,
      "LocationY": 86.52754458820624,
      "Angle": 0.0,
      "Scale": 0.8,
      "Shape": 0
    },
    {
      "Id": 2,
      "HardwareAddress": "PLB-102",
      "Name": "Shorty",
      "IsSingleColor": true,
      "SingleColor": "#FFFFFFFF",
      "LocationX": 33.716623720314445,
      "LocationY": 79.610897161603219,
      "Angle": 0.0,
      "Scale": 0.8,
      "Shape": 1
    },
    {
      "Id": 3,
      "HardwareAddress": "PLB-103",
      "Name": "Adventure-A",
      "IsSingleColor": true,
      "SingleColor": "#FFFFFFFF",
      "LocationX": 18.910718016574197,
      "LocationY": 57.261374982171,
      "Angle": 0.0,
      "Scale": 0.7,
      "Shape": 2
    },
    {
      "Id": 4,
      "HardwareAddress": "PLB-104",
      "Name": "INDY-I",
      "IsSingleColor": true,
      "SingleColor": "#FFFFFFFF",
      "LocationX": 34.560948998305207,
      "LocationY": 5.1001996862073646,
      "Angle": 90.0,
      "Scale": 1.0,
      "Shape": 3
    },
    {
      "Id": 5,
      "HardwareAddress": "PLB-105",
      "Name": "INDY-N",
      "IsSingleColor": true,
      "SingleColor": "#FFFFFFFF",
      "LocationX": 43.8172806834272,
      "LocationY": 4.87077449721869,
      "Angle": 0.0,
      "Scale": 1.0,
      "Shape": 4
    },
    {
      "Id": 6,
      "HardwareAddress": "PLB-106",
      "Name": "Left Orbit",
      "IsSingleColor": true,
      "SingleColor": "#FFFFFF00",
      "LocationX": 16.516587677725138,
      "LocationY": 44.704860501842404,
      "Angle": 342.85714285714249,
      "Scale": 0.75,
      "Shape": 5
    },
    {
      "Id": 8,
      "HardwareAddress": "PLB-108",
      "Name": "Right Ramp",
      "IsSingleColor": true,
      "SingleColor": "#FFFFFF00",
      "LocationX": 68.413654618473942,
      "LocationY": 44.156967622308066,
      "Angle": 17.0,
      "Scale": 0.8,
      "Shape": 7
    },
    {
      "Id": 9,
      "HardwareAddress": "PLB-109",
      "Name": "2X",
      "IsSingleColor": true,
      "SingleColor": "#FFFFFF00",
      "LocationX": 33.578199052132753,
      "LocationY": 76.191404257851588,
      "Angle": 97.142857142857167,
      "Scale": 0.7,
      "Shape": 8
    },
    {
      "Id": 10,
      "HardwareAddress": "PLB-110",
      "Name": "Shoot Again",
      "IsSingleColor": true,
      "SingleColor": "#FFFFA500",
      "LocationX": 20.994213822113124,
      "LocationY": 61.154241235971746,
      "Angle": 0.0,
      "Scale": 0.7,
      "Shape": 2
    },
    {
      "Id": 11,
      "HardwareAddress": "PLB-111",
      "Name": "Left Ramp",
      "IsSingleColor": true,
      "SingleColor": "#FFFFFF00",
      "LocationX": 33.102235531722329,
      "LocationY": 41.071600238343962,
      "Angle": 354.28571428571405,
      "Scale": 0.8,
      "Shape": 7
    },
    {
      "Id": 12,
      "Name": "INDY-D",
      "IsSingleColor": true,
      "SingleColor": "#FFFFFFFF",
      "LocationX": 52.811244979919664,
      "LocationY": 4.06504065040653,
      "Angle": 0.0,
      "Scale": 1.0,
      "Shape": 4
    },
    {
      "Id": 13,
      "Name": "INDY-Y",
      "IsSingleColor": true,
      "SingleColor": "#FFFFFFFF",
      "LocationX": 62.048192771084274,
      "LocationY": 3.5569105691057175,
      "Angle": 0.0,
      "Scale": 1.0,
      "Shape": 4
    },
    {
      "Id": 14,
      "Name": "Willie",
      "IsSingleColor": true,
      "SingleColor": "#FFFFFFFF",
      "LocationX": 35.542168674698871,
      "LocationY": 73.1707317073177,
      "Angle": 0.0,
      "Scale": 0.8,
      "Shape": 1
    },
    {
      "Id": 15,
      "Name": "Sallah",
      "IsSingleColor": true,
      "SingleColor": "#FFFFFFFF",
      "LocationX": 45.5823293172691,
      "LocationY": 69.512195121951549,
      "Angle": 0.0,
      "Scale": 0.8,
      "Shape": 1
    },
    {
      "Id": 16,
      "Name": "Marion",
      "IsSingleColor": true,
      "SingleColor": "#FFFFFFFF",
      "LocationX": 56.224899598393542,
      "LocationY": 73.069105691057331,
      "Angle": 0.0,
      "Scale": 0.8,
      "Shape": 1
    },
    {
      "Id": 17,
      "Name": "Dr Jones",
      "IsSingleColor": true,
      "SingleColor": "#FFFFFFFF",
      "LocationX": 57.22891566265028,
      "LocationY": 79.573170731708018,
      "Angle": 0.0,
      "Scale": 0.8,
      "Shape": 1
    },
    {
      "Id": 18,
      "Name": "New Led 18",
      "IsSingleColor": true,
      "SingleColor": "#FF008000",
      "LocationX": 29.479768786127138,
      "LocationY": 68.137069291934708,
      "Angle": 0.0,
      "Scale": 0.7,
      "Shape": 2
    },
    {
      "Id": 19,
      "Name": "Adventure-E",
      "IsSingleColor": true,
      "SingleColor": "#FFFFFFFF",
      "LocationX": 73.895582329317477,
      "LocationY": 59.451219512195117,
      "Angle": 0.0,
      "Scale": 0.7,
      "Shape": 2
    },
    {
      "Id": 20,
      "Name": "Adventure-R",
      "IsSingleColor": true,
      "SingleColor": "#FFFFFFFF",
      "LocationX": 74.096385542168875,
      "LocationY": 56.80894308943089,
      "Angle": 0.0,
      "Scale": 0.7,
      "Shape": 2
    },
    {
      "Id": 21,
      "Name": "Adventure-U",
      "IsSingleColor": true,
      "SingleColor": "#FFFFFFFF",
      "LocationX": 74.0963855421689,
      "LocationY": 53.963414634146339,
      "Angle": 0.0,
      "Scale": 0.7,
      "Shape": 2
    },
    {
      "Id": 22,
      "Name": "Adventure-T",
      "IsSingleColor": true,
      "SingleColor": "#FFFFFFFF",
      "LocationX": 48.795180722891573,
      "LocationY": 42.581300813008134,
      "Angle": 0.0,
      "Scale": 0.7,
      "Shape": 2
    },
    {
      "Id": 23,
      "Name": "Adventure-N",
      "IsSingleColor": true,
      "SingleColor": "#FFFFFFFF",
      "LocationX": 44.176706827309268,
      "LocationY": 41.361788617886184,
      "Angle": 0.0,
      "Scale": 0.7,
      "Shape": 2
    },
    {
      "Id": 24,
      "Name": "Adventure-E",
      "IsSingleColor": true,
      "SingleColor": "#FFFFFFFF",
      "LocationX": 39.357429718875558,
      "LocationY": 40.243902439024396,
      "Angle": 0.0,
      "Scale": 0.7,
      "Shape": 2
    },
    {
      "Id": 25,
      "Name": "Adventure-V",
      "IsSingleColor": true,
      "SingleColor": "#FFFFFFFF",
      "LocationX": 18.875502008032292,
      "LocationY": 51.6260162601626,
      "Angle": 0.0,
      "Scale": 0.7,
      "Shape": 2
    },
    {
      "Id": 26,
      "Name": "Adventure-D",
      "IsSingleColor": true,
      "SingleColor": "#FFFFFFFF",
      "LocationX": 18.674698795180888,
      "LocationY": 54.369918699186989,
      "Angle": 0.0,
      "Scale": 0.7,
      "Shape": 2
    },
    {
      "Id": 27,
      "Name": "Get The Idol",
      "IsSingleColor": true,
      "SingleColor": "#FFFFFFFF",
      "LocationX": 29.19075144508669,
      "LocationY": 64.619883040935648,
      "Angle": 340.00000000000017,
      "Scale": 1.0,
      "Shape": 3
    },
    {
      "Id": 28,
      "Name": "Streets Of Cairo",
      "IsSingleColor": true,
      "SingleColor": "#FFFFFFFF",
      "LocationX": 39.595375722543338,
      "LocationY": 61.988304093567265,
      "Angle": 351.42857142857167,
      "Scale": 1.0,
      "Shape": 3
    },
    {
      "Id": 29,
      "Name": "Tank Chase",
      "IsSingleColor": true,
      "SingleColor": "#FFFFFFFF",
      "LocationX": 39.306358381502918,
      "LocationY": 47.222222222222193,
      "Angle": 168.57142857142921,
      "Scale": 1.0,
      "Shape": 3
    },
    {
      "Id": 30,
      "Name": "Castle Grunewald",
      "IsSingleColor": true,
      "SingleColor": "#FFFFFFFF",
      "LocationX": 28.612716763005757,
      "LocationY": 49.853801169590717,
      "Angle": 340.00000000000017,
      "Scale": 1.0,
      "Shape": 3
    },
    {
      "Id": 31,
      "Name": "Survive The Rope Bridge",
      "IsSingleColor": true,
      "SingleColor": "#FFFFFFFF",
      "LocationX": 62.716763005780351,
      "LocationY": 57.163742690058555,
      "Angle": 200.00000000000068,
      "Scale": 1.0,
      "Shape": 3
    },
    {
      "Id": 32,
      "Name": "Escape In The Mine Cart",
      "IsSingleColor": true,
      "SingleColor": "#FFFFFFFF",
      "LocationX": 52.02312138728324,
      "LocationY": 54.532163742690095,
      "Angle": 191.42857142857204,
      "Scale": 1.0,
      "Shape": 3
    },
    {
      "Id": 33,
      "Name": "Steal The Stones",
      "IsSingleColor": true,
      "SingleColor": "#FFFFFFFF",
      "LocationX": 39.754441777563144,
      "LocationY": 54.656541852142809,
      "Angle": 171.42857142857173,
      "Scale": 1.0,
      "Shape": 3
    },
    {
      "Id": 34,
      "Name": "Monkey Brains",
      "IsSingleColor": true,
      "SingleColor": "#FFFFFFFF",
      "LocationX": 28.656033858345975,
      "LocationY": 57.163742690058456,
      "Angle": 340.00000000000028,
      "Scale": 1.0,
      "Shape": 3
    },
    {
      "Id": 35,
      "Name": "Get The Medallion",
      "IsSingleColor": true,
      "SingleColor": "#FFFFFFFF",
      "LocationX": 62.919146156140371,
      "LocationY": 64.510779436152561,
      "Angle": 200.00000000000065,
      "Scale": 1.0,
      "Shape": 3
    },
    {
      "Id": 36,
      "Name": "Well Of Souls",
      "IsSingleColor": true,
      "SingleColor": "#FFFFFFFF",
      "LocationX": 52.02312138728324,
      "LocationY": 62.193418870559412,
      "Angle": 191.42857142857184,
      "Scale": 1.0,
      "Shape": 3
    },
    {
      "Id": 37,
      "Name": "Choose Wisely",
      "IsSingleColor": true,
      "SingleColor": "#FFFFFFFF",
      "LocationX": 63.005780346820828,
      "LocationY": 50.000000000000142,
      "Angle": 200.00000000000074,
      "Scale": 1.0,
      "Shape": 3
    },
    {
      "Id": 38,
      "Name": "The Three Challenges",
      "IsSingleColor": true,
      "SingleColor": "#FFFFFFFF",
      "LocationX": 52.3121387283237,
      "LocationY": 47.222222222222378,
      "Angle": 188.57142857142924,
      "Scale": 1.0,
      "Shape": 3
    },
    {
      "Id": 39,
      "Name": "The Ark",
      "IsSingleColor": true,
      "SingleColor": "#FFFFFFFF",
      "LocationX": 45.664739884393057,
      "LocationY": 65.204678362572963,
      "Angle": 0.0,
      "Scale": 1.0,
      "Shape": 3
    },
    {
      "Id": 40,
      "Name": "The Stones",
      "IsSingleColor": true,
      "SingleColor": "#FFFFFFFF",
      "LocationX": 45.9537572254335,
      "LocationY": 58.040935672514728,
      "Angle": 0.0,
      "Scale": 0.8,
      "Shape": 1
    },
    {
      "Id": 41,
      "Name": "The Grail",
      "IsSingleColor": true,
      "SingleColor": "#FFFFFFFF",
      "LocationX": 45.95375722543352,
      "LocationY": 50.584795321637522,
      "Angle": 0.0,
      "Scale": 0.8,
      "Shape": 1
    },
    {
      "Id": 42,
      "Name": "Super Jackpot",
      "IsSingleColor": true,
      "SingleColor": "#FFFFFFFF",
      "LocationX": 60.982658959537574,
      "LocationY": 37.42690058479544,
      "Angle": 102.85714285714286,
      "Scale": 1.0,
      "Shape": 3
    },
    {
      "Id": 43,
      "Name": "New Led 43",
      "IsSingleColor": true,
      "SingleColor": "#FF008000",
      "LocationX": 29.14691943127967,
      "LocationY": 60.791366906474778,
      "Angle": 0.0,
      "Scale": 0.7,
      "Shape": 2
    },
    {
      "Id": 44,
      "Name": "New Led 44",
      "IsSingleColor": true,
      "SingleColor": "#FF008000",
      "LocationX": 29.383886255924217,
      "LocationY": 53.357314148681077,
      "Angle": 0.0,
      "Scale": 0.7,
      "Shape": 2
    },
    {
      "Id": 45,
      "Name": "New Led 45",
      "IsSingleColor": true,
      "SingleColor": "#FF008000",
      "LocationX": 62.322274881516506,
      "LocationY": 68.345323741007135,
      "Angle": 0.0,
      "Scale": 0.7,
      "Shape": 2
    },
    {
      "Id": 46,
      "Name": "New Led 46",
      "IsSingleColor": true,
      "SingleColor": "#FF008000",
      "LocationX": 62.559241706161067,
      "LocationY": 60.791366906474785,
      "Angle": 0.0,
      "Scale": 0.7,
      "Shape": 2
    },
    {
      "Id": 47,
      "Name": "New Led 47",
      "IsSingleColor": true,
      "SingleColor": "#FF008000",
      "LocationX": 62.55924170616111,
      "LocationY": 53.357314148680956,
      "Angle": 0.0,
      "Scale": 0.7,
      "Shape": 2
    },
    {
      "Id": 48,
      "Name": "Right Orbit",
      "IsSingleColor": true,
      "SingleColor": "#FFFFFF00",
      "LocationX": 77.488151658767819,
      "LocationY": 45.8033573141487,
      "Angle": 22.857142857142868,
      "Scale": 0.75,
      "Shape": 5
    },
    {
      "Id": 49,
      "Name": "4X",
      "IsSingleColor": true,
      "SingleColor": "#FFFFFF00",
      "LocationX": 38.625592417061675,
      "LocationY": 70.023980815347642,
      "Angle": 142.85714285714289,
      "Scale": 0.7,
      "Shape": 8
    },
    {
      "Id": 50,
      "Name": "6X",
      "IsSingleColor": true,
      "SingleColor": "#FFFFFF00",
      "LocationX": 53.080568720379283,
      "LocationY": 70.0239808153477,
      "Angle": 217.14285714285734,
      "Scale": 0.7,
      "Shape": 8
    },
    {
      "Id": 51,
      "Name": "8X",
      "IsSingleColor": true,
      "SingleColor": "#FFFFFF00",
      "LocationX": 57.81990521327009,
      "LocationY": 76.498800959232412,
      "Angle": 268.57142857142861,
      "Scale": 0.7,
      "Shape": 8
    },
    {
      "Id": 52,
      "Name": "Left Outlane",
      "IsSingleColor": true,
      "SingleColor": "#FFFF0000",
      "LocationX": 10.982658959537527,
      "LocationY": 67.982456140350763,
      "Angle": 0.0,
      "Scale": 0.7,
      "Shape": 2
    },
    {
      "Id": 53,
      "Name": "Left Inlane",
      "IsSingleColor": true,
      "SingleColor": "#FFFFFFFF",
      "LocationX": 17.3410404624277,
      "LocationY": 67.836257309941359,
      "Angle": 0.0,
      "Scale": 0.7,
      "Shape": 2
    },
    {
      "Id": 54,
      "Name": "Right Inlane",
      "IsSingleColor": true,
      "SingleColor": "#FFFFFFFF",
      "LocationX": 74.277456647398878,
      "LocationY": 67.251461988304129,
      "Angle": 0.0,
      "Scale": 0.7,
      "Shape": 2
    },
    {
      "Id": 55,
      "Name": "Right Outlane",
      "IsSingleColor": true,
      "SingleColor": "#FFFF0000",
      "LocationX": 82.080924855491375,
      "LocationY": 73.538011695906349,
      "Angle": 0.0,
      "Scale": 0.7,
      "Shape": 2
    },
    {
      "Id": 56,
      "Name": "Lock",
      "IsSingleColor": true,
      "SingleColor": "#FF000000",
      "LocationX": 50.0,
      "LocationY": 35.818713450292478,
      "Angle": 14.285714285714285,
      "Scale": 0.7,
      "Shape": 8
    },
    {
      "Id": 57,
      "Name": "Hurry Up",
      "IsSingleColor": true,
      "SingleColor": "#FFFFFF00",
      "LocationX": 52.890173410404628,
      "LocationY": 36.842105263157919,
      "Angle": 14.285714285714285,
      "Scale": 0.7,
      "Shape": 8
    },
    {
      "Id": 58,
      "Name": "Extra Ball",
      "IsSingleColor": true,
      "SingleColor": "#FFFF0000",
      "LocationX": 26.878612716762973,
      "LocationY": 46.345029239766141,
      "Angle": 0.0,
      "Scale": 0.75,
      "Shape": 2
    },
    {
      "Id": 59,
      "Name": "Hand Of Fate",
      "IsSingleColor": true,
      "SingleColor": "#FFFFFFFF",
      "LocationX": 25.722543352601122,
      "LocationY": 42.982456140350969,
      "Angle": 0.0,
      "Scale": 0.75,
      "Shape": 2
    },
    {
      "Id": 60,
      "Name": "Mode Start",
      "IsSingleColor": true,
      "SingleColor": "#FFFFFF00",
      "LocationX": 24.277456647398807,
      "LocationY": 39.766081871345079,
      "Angle": 0.0,
      "Scale": 0.75,
      "Shape": 2
    },
    {
      "Id": 61,
      "Name": "New Led 61",
      "IsSingleColor": true,
      "SingleColor": "#FFFFFFFF",
      "LocationX": 66.763005780346845,
      "LocationY": 25.000000000000004,
      "Angle": 12.0,
      "Scale": 0.75,
      "Shape": 7
    },
    {
      "Id": 62,
      "Name": "New Led 62",
      "IsSingleColor": true,
      "SingleColor": "#FFFFFFFF",
      "LocationX": 69.075144508670547,
      "LocationY": 20.02923976608183,
      "Angle": 12.0,
      "Scale": 0.75,
      "Shape": 7
    },
    {
      "Id": 63,
      "Name": "Left Inlane 1",
      "IsSingleColor": true,
      "SingleColor": "#FFFFEA82",
      "LocationX": 19.07514450867049,
      "LocationY": 79.970760233918,
      "Angle": 0.0,
      "Scale": 0.4,
      "Shape": 2
    },
    {
      "Id": 64,
      "Name": "Left Inlane 2",
      "IsSingleColor": true,
      "SingleColor": "#FFFFEA82",
      "LocationX": 24.5664739884393,
      "LocationY": 81.871345029239777,
      "Angle": 0.0,
      "Scale": 0.4,
      "Shape": 2
    },
    {
      "Id": 65,
      "Name": "New Led 65",
      "IsSingleColor": true,
      "SingleColor": "#FFFFEA82",
      "LocationX": 72.5433526011561,
      "LocationY": 79.67836257309942,
      "Angle": 0.0,
      "Scale": 0.4,
      "Shape": 2
    },
    {
      "Id": 66,
      "Name": "New Led 66",
      "IsSingleColor": true,
      "SingleColor": "#FFFFEA82",
      "LocationX": 66.763005780346845,
      "LocationY": 81.725146198830373,
      "Angle": 0.0,
      "Scale": 0.4,
      "Shape": 2
    },
    {
      "Id": 67,
      "Name": "New Led 67",
      "IsSingleColor": true,
      "SingleColor": "#FFFFEA82",
      "LocationX": 24.56647398843927,
      "LocationY": 76.169590643274816,
      "Angle": 0.0,
      "Scale": 0.4,
      "Shape": 2
    },
    {
      "Id": 68,
      "Name": "New Led 68",
      "IsSingleColor": true,
      "SingleColor": "#FFFFEA82",
      "LocationX": 21.965317919075105,
      "LocationY": 70.029239766081929,
      "Angle": 0.0,
      "Scale": 0.4,
      "Shape": 2
    },
    {
      "Id": 69,
      "Name": "New Led 69",
      "IsSingleColor": true,
      "SingleColor": "#FFFFEA82",
      "LocationX": 65.606936416184965,
      "LocationY": 76.023391812865555,
      "Angle": 0.0,
      "Scale": 0.4,
      "Shape": 2
    },
    {
      "Id": 70,
      "Name": "New Led 70",
      "IsSingleColor": true,
      "SingleColor": "#FFFFEA82",
      "LocationX": 69.653179190751473,
      "LocationY": 70.029239766081915,
      "Angle": 0.0,
      "Scale": 0.4,
      "Shape": 2
    }
  ],
  "Groups": [
    {
      "Name": "Unassigned Leds",
      "Leds": [
        10,
        56,
        1,
        57
      ]
    },
    {
      "Name": "INDY Rollovers",
      "Leds": [
        4,
        5,
        12,
        13
      ]
    },
    {
      "Name": "Adventure",
      "Leds": [
        3,
        26,
        25,
        24,
        23,
        22,
        21,
        20,
        19
      ]
    },
    {
      "Name": "Faces",
      "Leds": [
        2,
        14,
        15,
        16,
        17
      ]
    },
    {
      "Name": "Movie Modes",
      "Leds": [
        27,
        28,
        29,
        30,
        31,
        32,
        33,
        34,
        35,
        36,
        37,
        38
      ]
    },
    {
      "Name": "Jackpots",
      "Leds": [
        39,
        40,
        41,
        42
      ]
    },
    {
      "Name": "Wings",
      "Leds": [
        18,
        43,
        44,
        45,
        47,
        46
      ]
    },
    {
      "Name": "Orbits",
      "Leds": [
        6,
        48
      ]
    },
    {
      "Name": "Global Illumination",
      "Leds": [
        63,
        64,
        65,
        66,
        67,
        68,
        69,
        70
      ]
    },
    {
      "Name": "Multipliers",
      "Leds": [
        9,
        49,
        50,
        51
      ]
    },
    {
      "Name": "Lanes",
      "Leds": [
        52,
        53,
        54,
        55
      ]
    },
    {
      "Name": "Ramps",
      "Leds": [
        8,
        11
      ]
    },
    {
      "Name": "Mode Saucer",
      "Leds": [
        58,
        59,
        60
      ]
    },
    {
      "Name": "Captive Ball",
      "Leds": [
        61,
        62
      ]
    }
  ]
}